com\example\demo\entity\Task.class
com\example\demo\NishiozeApplication.class
com\example\demo\controller\TaskController.class
com\example\demo\service\TaskService.class
com\example\demo\repository\TaskRepository.class
